Nome,Sobrenome,Sexo,Idade,Chute,Passe,Drible,Defesa
Carla,Santos,F,58,0,6.9,5.4,4.4
Flavia,Santos,F,25,4.4,0,5.6,8.8
Samila,Rodrigues,F,22,8.9,0,0,10
Rose,Angela,Fêmea,15,2.5,3.1,3.3,10
Marta,Souza,Fe,22,8,10,10,9
Chris,Tiane,Fe,13,4.4,5.5,6.6,7.7
Ana,Clara,Fem,5,6.6,5.4,5.5,6.6
Maria,Teixeira,Fem,16,10,8,10,10
Margarida,Zoe,Mulher,17,4.4,8.8,9.9,1.1
Camila,Carmo,Fem,17,5,4,9,6.6
Mario,Cezar,M,17,10,10,8.8,9.3
Matheus,Tornozelo,M,17,4.4,5.5,4,6.21
Carlos,Joca,Macho,20,7.8,8.8,8.8,6.6
Janderson,Ulisses,Ma,18,1.2,10,10,3.3
Neysea,Floor,Masc,20,10,10,10,8.5
Roger,Pessoa,Masc,17,4.4,6.7,8.8,10
Flavio,Augusto,Homem,19,10,10,10,10
Jorge,Seu,Masc,15,5.5,9.8,7.7,4.4
Fabio,Rabin,Masc,18,10,5.2,1.7,8
Fagner,Meirelis,Masc,33,4.5,5.6,7,6.6